; Engine configuration file.
; It's best edited using the editor UI and not directly,
; since the parameters that go here are not all obvious.
;
; Format:
;   [section] ; section goes between []
;   param=value ; assign values to parameters

config_version=4

_global_script_classes=[ {
"base": "CPUParticles",
"class": "LODCPUParticles",
"language": "GDScript",
"path": "res://addons/lod/lod_cpu_particles.gd"
}, {
"base": "OmniLight",
"class": "LODOmniLight",
"language": "GDScript",
"path": "res://addons/lod/lod_omni_light.gd"
}, {
"base": "Particles",
"class": "LODParticles",
"language": "GDScript",
"path": "res://addons/lod/lod_particles.gd"
}, {
"base": "Spatial",
"class": "LODSpatial",
"language": "GDScript",
"path": "res://addons/lod/lod_spatial.gd"
}, {
"base": "SpotLight",
"class": "LODSpotLight",
"language": "GDScript",
"path": "res://addons/lod/lod_spot_light.gd"
} ]
_global_script_class_icons={
"LODCPUParticles": "res://addons/lod/lod_cpu_particles.svg",
"LODOmniLight": "res://addons/lod/lod_omni_light.svg",
"LODParticles": "res://addons/lod/lod_particles.svg",
"LODSpatial": "res://addons/lod/lod_spatial.svg",
"LODSpotLight": "res://addons/lod/lod_spot_light.svg"
}

[application]

config/name="Bronze Age Tribes"
run/main_scene="res://Scenes/Startup.tscn"
config/use_custom_user_dir=true
config/custom_user_dir_name="BronzeAgeTribes"
config/icon="res://icon.png"
config/windows_native_icon="res://icon.ico"

[autoload]

BackgroundMusic="*res://Scenes/BackgroundMusic.tscn"

[display]

window/size/fullscreen=true

[editor_plugins]

enabled=PoolStringArray( "lod" )

[input]

pan_forward={
"deadzone": 0.5,
"events": [ Object(InputEventKey,"resource_local_to_scene":false,"resource_name":"","device":0,"alt":false,"shift":false,"control":false,"meta":false,"command":false,"pressed":false,"scancode":87,"unicode":0,"echo":false,"script":null)
 ]
}
pan_back={
"deadzone": 0.5,
"events": [ Object(InputEventKey,"resource_local_to_scene":false,"resource_name":"","device":0,"alt":false,"shift":false,"control":false,"meta":false,"command":false,"pressed":false,"scancode":83,"unicode":0,"echo":false,"script":null)
 ]
}
pan_left={
"deadzone": 0.5,
"events": [ Object(InputEventKey,"resource_local_to_scene":false,"resource_name":"","device":0,"alt":false,"shift":false,"control":false,"meta":false,"command":false,"pressed":false,"scancode":65,"unicode":0,"echo":false,"script":null)
 ]
}
pan_right={
"deadzone": 0.5,
"events": [ Object(InputEventKey,"resource_local_to_scene":false,"resource_name":"","device":0,"alt":false,"shift":false,"control":false,"meta":false,"command":false,"pressed":false,"scancode":68,"unicode":0,"echo":false,"script":null)
 ]
}
camera_rotate={
"deadzone": 0.5,
"events": [ Object(InputEventMouseButton,"resource_local_to_scene":false,"resource_name":"","device":0,"alt":false,"shift":false,"control":false,"meta":false,"command":false,"button_mask":0,"position":Vector2( 0, 0 ),"global_position":Vector2( 0, 0 ),"factor":1.0,"button_index":2,"pressed":false,"doubleclick":false,"script":null)
 ]
}
camera_zoom_in={
"deadzone": 0.5,
"events": [ Object(InputEventKey,"resource_local_to_scene":false,"resource_name":"","device":0,"alt":false,"shift":false,"control":false,"meta":false,"command":false,"pressed":false,"scancode":82,"unicode":0,"echo":false,"script":null)
 ]
}
camera_zoom_out={
"deadzone": 0.5,
"events": [ Object(InputEventKey,"resource_local_to_scene":false,"resource_name":"","device":0,"alt":false,"shift":false,"control":false,"meta":false,"command":false,"pressed":false,"scancode":70,"unicode":0,"echo":false,"script":null)
 ]
}
mousewheel_up={
"deadzone": 0.5,
"events": [ Object(InputEventMouseButton,"resource_local_to_scene":false,"resource_name":"","device":-1,"alt":false,"shift":false,"control":false,"meta":false,"command":false,"button_mask":0,"position":Vector2( 0, 0 ),"global_position":Vector2( 0, 0 ),"factor":1.0,"button_index":4,"pressed":false,"doubleclick":false,"script":null)
 ]
}
mousewheel_down={
"deadzone": 0.5,
"events": [ Object(InputEventMouseButton,"resource_local_to_scene":false,"resource_name":"","device":-1,"alt":false,"shift":false,"control":false,"meta":false,"command":false,"button_mask":0,"position":Vector2( 0, 0 ),"global_position":Vector2( 0, 0 ),"factor":1.0,"button_index":5,"pressed":false,"doubleclick":false,"script":null)
 ]
}

[logging]

file_logging/enable_file_logging=true

[rendering]

environment/default_environment="res://default_env.tres"
