[gd_resource type="Resource" load_steps=4 format=2]

[ext_resource path="res://Logic/Resources/TerrainType.cs" type="Script" id=1]
[ext_resource path="res://Resources/Traits/trait_terrain_mountains.tres" type="Resource" id=2]
[ext_resource path="res://Textures/UI/icon_terrain_mountains.png" type="Texture" id=3]

[resource]
script = ExtResource( 1 )
Id = "HighPeakTerrainType"
Name = "Mountain"
Description = "Towering mountains."
Height = 11.0
ParamMaxHeight = 5.0
PlaceOnWorldEdge = false
InclusionChance = 0.0
CanInclusionsBorder = false
Traits = [ ExtResource( 2 ) ]
Inclusions = [  ]
CellFeatureChance = 0.0
CellFeatures = [  ]
AdjacentCellFeatureChance = 0.0
AdjacentCellFeatures = [  ]
InteractButtonIcon = ExtResource( 3 )
