[gd_resource type="Resource" load_steps=10 format=2]

[ext_resource path="res://Logic/Resources/BiomeType.cs" type="Script" id=1]
[ext_resource path="res://Resources/CellFeatures/HeavyJungleTrees.tres" type="Resource" id=2]
[ext_resource path="res://Resources/CellFeatures/Reeds.tres" type="Resource" id=3]
[ext_resource path="res://Textures/Pops/pop_background_swamp.png" type="Texture" id=5]
[ext_resource path="res://Resources/Jobs/ForagingJob.tres" type="Resource" id=6]
[ext_resource path="res://Textures/UI/citybackground_swamp.png" type="Texture" id=7]
[ext_resource path="res://Resources/CellFeatures/Thicket.tres" type="Resource" id=8]
[ext_resource path="res://Textures/maphex/maphex_swamp.png" type="Texture" id=9]
[ext_resource path="res://Resources/CellFeatures/CraneFlock.tres" type="Resource" id=10]

[resource]
script = ExtResource( 1 )
Id = "biome_swamp"
Name = "Swamp"
GroundColor = Color( 0.235294, 0.341176, 0, 1 )
ColorStrength = 0.0
CellFeatureChance = 0.7
CellFeatures = [ ExtResource( 2 ), ExtResource( 3 ), ExtResource( 8 ), ExtResource( 10 ) ]
TerrainNoiseFactor = -4.0
TerrainHeightBoost = 0.0
WaterColor = Color( 0, 0.6, 1, 1 )
HeightTransitionHeight = 0.0
RegionSizeFactor = 1.0
Traits = [  ]
PopBackground = ExtResource( 5 )
CityBackground = ExtResource( 7 )
MapHex = ExtResource( 9 )
BaseJob = ExtResource( 6 )
FoodWhenWorked = 1.0
ProductionWhenWorked = 0.0
LuxuriesWhenWorked = 0.0
TradeWhenWorked = 0.0
WealthWhenWorked = 0.0
LegitimacyWhenWorked = 0.0
RiverCellFeatureChance = 0.0
RiverCellFeatures = [  ]
