[gd_resource type="Resource" load_steps=4 format=2]

[ext_resource path="res://Resources/Jobs/ConstructingJob.tres" type="Resource" id=1]
[ext_resource path="res://Logic/Resources/InteractionOption.cs" type="Script" id=2]
[ext_resource path="res://Textures/UI/icon_interaction_build.png" type="Texture" id=3]

[resource]
script = ExtResource( 2 )
Id = "interaction_build_development"
Name = "Build"
Description = "Building a development."
Icon = ExtResource( 3 )
Category = 2
Turns = 4
InteractionJob = ExtResource( 1 )
