[gd_resource type="Resource" load_steps=2 format=2]

[ext_resource path="res://Logic/Resources/PopJobType.cs" type="Script" id=1]

[resource]
script = ExtResource( 1 )
Category = 3
Title = "Crafter"
BaseFoodFactor = 0.0
BaseProductionFactor = 1.0
BaseLuxuriesFactor = 1.0
BaseTradeFactor = 1.0
BaseWealthFactor = 1.0
BaseLegitimacyFactor = 1.0
FoodFromJob = 0.0
ProductionFromJob = 0.0
LuxuriesFromJob = 0.0
TradeFromJob = 0.0
WealthFromJob = 0.0
LegitimacyFromJob = 0.0
