[gd_resource type="Resource" load_steps=7 format=2]

[ext_resource path="res://Logic/Resources/BuildingType.cs" type="Script" id=1]
[ext_resource path="res://Textures/UI/bld_crafter.PNG" type="Texture" id=2]
[ext_resource path="res://Resources/Interactions/interaction_build_building_2.tres" type="Resource" id=3]
[ext_resource path="res://Textures/UI/citybackground_humitte_bld_crafter.png" type="Texture" id=4]
[ext_resource path="res://Resources/Jobs/CraftingJob.tres" type="Resource" id=5]
[ext_resource path="res://Resources/Interactions/interaction_remove_building.tres" type="Resource" id=6]

[resource]
script = ExtResource( 1 )
Id = "bld_crafter"
Name = "Crafter"
Description = "A craft workshop."
Traits = [  ]
StarvationProtection = 0
SettlementBackground = ExtResource( 4 )
SettlementBackgroundSlot = 0
SettlementBackgroundPriority = 2
InteractButtonIcon = ExtResource( 2 )
FoodWhenWorked = 0.0
ProductionWhenWorked = 0.0
LuxuriesWhenWorked = 1.0
TradeWhenWorked = 0.0
WealthWhenWorked = 0.0
LegitimacyWhenWorked = 0.0
ConstructionInteraction = ExtResource( 3 )
ProvidedJobs = [ ExtResource( 5 ) ]
RequiredTileTraits = [  ]
RequiredAdjacentTileTraits = [  ]
ForbiddenTileTraits = [  ]
RequiredEmpireTraits = [  ]
InteractionOptions = [ ExtResource( 6 ) ]
RotatePrefabs = false
PrefabPlacementMode = 0
BuildingPrefabType = "bld_crafter"
