[gd_resource type="Resource" load_steps=6 format=2]

[ext_resource path="res://Logic/Resources/CellFeatureType.cs" type="Script" id=1]
[ext_resource path="res://Models/Animals/deer.tscn" type="PackedScene" id=2]
[ext_resource path="res://Textures/Pops/pop_midground_deer.png" type="Texture" id=3]
[ext_resource path="res://Textures/UI/icon_feature_deer.png" type="Texture" id=4]
[ext_resource path="res://Resources/Interactions/interaction_hunt_deer.tres" type="Resource" id=5]

[resource]
script = ExtResource( 1 )
Id = "feature_deer_herd"
Name = "Deer"
Description = "A herd of deer."
PrefabChancePerVertex = 0.1
PrefabPlacementMode = 0
MapPrefabs = [ ExtResource( 2 ) ]
Traits = [  ]
PopBackground = ExtResource( 3 )
InteractButtonIcon = ExtResource( 4 )
FoodWhenWorked = 0.0
ProductionWhenWorked = 0.0
LuxuriesWhenWorked = 0.0
TradeWhenWorked = 0.0
WealthWhenWorked = 0.0
LegitimacyWhenWorked = 0.0
InteractionOptions = [ ExtResource( 5 ) ]
ClearedByDevelopment = true
