[gd_scene load_steps=2 format=2]

[ext_resource path="res://Models/Animals/Pig.tscn" type="PackedScene" id=1]

[node name="Spatial" type="Spatial"]

[node name="Pig" parent="." instance=ExtResource( 1 )]
transform = Transform( 0.1, 0, 0, 0, 0.1, 0, 0, 0, 0.1, 0, 0, 0 )
