[gd_resource type="Resource" load_steps=3 format=2]

[ext_resource path="res://Textures/UI/trait_terrain_water.png" type="Texture" id=1]
[ext_resource path="res://Logic/Resources/TerrainTrait.cs" type="Script" id=2]

[resource]
script = ExtResource( 2 )
Id = "trait_terrain_water"
Name = "Water"
Icon = ExtResource( 1 )
Description = "The land here is covered by deep water."
JobBonuses = [  ]
ForbiddenJobs = PoolIntArray(  )
CombatBonus = 0.0
GrowthBonus = 0.0
PreventSettling = false
BonusInteractions = PoolIntArray(  )
