# Made using Asset Forge (www.assetforge.io) version 1.3 

newmtl _defaultMat (Instance)
Ka 0.000000 0.000000 0.000000 
Kd 0.5215687 0.2980392 0.1882353 
Ks 0.330000 0.330000 0.330000 

newmtl _defaultMat (Instance) (Instance)
Ka 0.000000 0.000000 0.000000 
Kd 0.5215687 0.2980392 0.1882353 
Ks 0.330000 0.330000 0.330000 

