[gd_scene load_steps=5 format=2]

[ext_resource path="res://Textures/mat_rock.tres" type="Material" id=2]
[ext_resource path="res://Textures/mat_copper.tres" type="Material" id=3]
[ext_resource path="res://Models/Rocks/stone_largeB.obj" type="ArrayMesh" id=5]
[ext_resource path="res://Models/Rocks/stone_largeA.obj" type="ArrayMesh" id=6]

[node name="Spatial" type="Spatial"]

[node name="stone_largeA" type="MeshInstance" parent="."]
transform = Transform( 0.642329, -0.164607, -0.447569, 0.242662, 0.759176, 0.0690463, 0.410523, -0.191198, 0.659481, 0.0506662, 0.0806051, 0.161439 )
mesh = ExtResource( 6 )
material/0 = ExtResource( 3 )

[node name="stone_largeB" type="MeshInstance" parent="."]
mesh = ExtResource( 5 )
material/0 = ExtResource( 2 )
material/1 = null
